{
  "_fv": 18,
  "_type": "gun",
  "definition": {
    "renderType": 0,
    "texture": "blastec_dl44_rotated",
    "customModelName": "Normal",
    "name": "Blastec DL 4 4",
    "specialInfo": [],
    "creativeTab": {
      "value": "COMBAT"
    },
    "stackSize": 1,
    "ammoItem": {
      "value": "CUSTOM:Blasterammo"
    },
    "shootConstantly": false,
    "usageCount": 100,
    "actionSound": {
      "value": "CUSTOM:blaster_fire"
    },
    "hasGlow": false,
    "animation": "bow",
    "enableMeleeDamage": false,
    "damageVsEntity": 0.0,
    "bulletPower": 3.0,
    "bulletDamage": 5.0,
    "bulletKnockback": 2,
    "bulletParticles": false,
    "bulletIgnitesFire": false,
    "bulletItemTexture": {
      "value": "CUSTOM:Blasterammo"
    },
    "bulletModel": "Default",
    "customBulletModelTexture": ""
  }
}