{
  "_fv": 18,
  "_type": "recipe",
  "definition": {
    "recipeType": "Smelting",
    "xpReward": 10.0,
    "cookingTime": 200,
    "recipeRetstackSize": 1,
    "group": "",
    "recipeShapeless": false,
    "smeltingInputStack": {
      "value": "CUSTOM:KyberBlackOre"
    },
    "smeltingReturnStack": {
      "value": "CUSTOM:Kyberblack"
    },
    "name": "kyber_black_recipe",
    "namespace": "mod"
  }
}