{
  "_fv": 18,
  "_type": "musicdisc",
  "definition": {
    "texture": "mando_disc",
    "name": "Madolorian Theme",
    "description": "mandalorian theme",
    "creativeTab": {
      "value": "MISC"
    },
    "music": {
      "value": "CUSTOM:mando_theme"
    },
    "specialInfo": [],
    "hasGlow": false
  }
}