{
  "group": "jude",
  "type": "minecraft:crafting_shaped",
  "pattern": [
    "0",
    "1"
  ],
  "key": {
    "0": {
      "item": "minecraft:sugar_cane"
    },
    "1": {
      "item": "minecraft:stone_button"
    }
  },
  "result": {
    "item": "jude:medstick",
    "count": 1
  }
}